{
  "head": {
    "docType": "3",
    "editorVersion": "6.4.0",
    "newgId": true,
    "c_para": {},
    "hasIdFlag": true
  },
  "canvas": "CA~1000~1000~#000000~yes~#FFFFFF~10~1000~1000~line~0.5~mm~1~45~~0.5~4020~3399~1~yes",
  "shape": [
    "TRACK~1~10~~4048 3750 4340 3750 4340 3945 4048 3945 4048 3750~gge253~0",
    "TEXT~L~4180~3061.5~0.6~0~0~3~~3~SIGNAL~M 4181.91 3058.88 L 4181.64 3058.61 L 4181.23 3058.47 L 4180.68 3058.47 L 4180.27 3058.61 L 4180 3058.88 L 4180 3059.15 L 4180.14 3059.43 L 4180.27 3059.56 L 4180.55 3059.7 L 4181.36 3059.97 L 4181.64 3060.11 L 4181.77 3060.25 L 4181.91 3060.52 L 4181.91 3060.93 L 4181.64 3061.2 L 4181.23 3061.34 L 4180.68 3061.34 L 4180.27 3061.2 L 4180 3060.93 M 4182.81 3058.47 L 4182.81 3061.34 M 4185.75 3059.15 L 4185.62 3058.88 L 4185.35 3058.61 L 4185.07 3058.47 L 4184.53 3058.47 L 4184.25 3058.61 L 4183.98 3058.88 L 4183.85 3059.15 L 4183.71 3059.56 L 4183.71 3060.25 L 4183.85 3060.65 L 4183.98 3060.93 L 4184.25 3061.2 L 4184.53 3061.34 L 4185.07 3061.34 L 4185.35 3061.2 L 4185.62 3060.93 L 4185.75 3060.65 L 4185.75 3060.25 M 4185.07 3060.25 L 4185.75 3060.25 M 4186.65 3058.47 L 4186.65 3061.34 M 4186.65 3058.47 L 4188.56 3061.34 M 4188.56 3058.47 L 4188.56 3061.34 M 4190.55 3058.47 L 4189.46 3061.34 M 4190.55 3058.47 L 4191.65 3061.34 M 4189.87 3060.38 L 4191.24 3060.38 M 4192.55 3058.47 L 4192.55 3061.34 M 4192.55 3061.34 L 4194.18 3061.34~~gge257~~0~",
    "TEXT~L~4142.5~3061~0.6~0~0~3~~3~3V3~M 4142.77 3057.97 L 4144.27 3057.97 L 4143.45 3059.06 L 4143.86 3059.06 L 4144.14 3059.2 L 4144.27 3059.34 L 4144.41 3059.75 L 4144.41 3060.02 L 4144.27 3060.43 L 4144 3060.7 L 4143.59 3060.84 L 4143.18 3060.84 L 4142.77 3060.7 L 4142.64 3060.56 L 4142.5 3060.29 M 4145.31 3057.97 L 4146.4 3060.84 M 4147.49 3057.97 L 4146.4 3060.84 M 4148.66 3057.97 L 4150.16 3057.97 L 4149.35 3059.06 L 4149.75 3059.06 L 4150.03 3059.2 L 4150.16 3059.34 L 4150.3 3059.75 L 4150.3 3060.02 L 4150.16 3060.43 L 4149.89 3060.7 L 4149.48 3060.84 L 4149.07 3060.84 L 4148.66 3060.7 L 4148.53 3060.56 L 4148.39 3060.29~~gge261~~0~",
    "TEXT~L~4159.5~3061~0.6~0~0~3~~3~Unused~M 4159.5 3057.97 L 4159.5 3060.02 L 4159.64 3060.43 L 4159.91 3060.7 L 4160.32 3060.84 L 4160.59 3060.84 L 4161 3060.7 L 4161.27 3060.43 L 4161.41 3060.02 L 4161.41 3057.97 M 4162.31 3058.93 L 4162.31 3060.84 M 4162.31 3059.47 L 4162.72 3059.06 L 4162.99 3058.93 L 4163.4 3058.93 L 4163.67 3059.06 L 4163.81 3059.47 L 4163.81 3060.84 M 4164.71 3058.93 L 4164.71 3060.29 L 4164.85 3060.7 L 4165.12 3060.84 L 4165.53 3060.84 L 4165.8 3060.7 L 4166.21 3060.29 M 4166.21 3058.93 L 4166.21 3060.84 M 4168.61 3059.34 L 4168.47 3059.06 L 4168.06 3058.93 L 4167.65 3058.93 L 4167.25 3059.06 L 4167.11 3059.34 L 4167.25 3059.61 L 4167.52 3059.75 L 4168.2 3059.88 L 4168.47 3060.02 L 4168.61 3060.29 L 4168.61 3060.43 L 4168.47 3060.7 L 4168.06 3060.84 L 4167.65 3060.84 L 4167.25 3060.7 L 4167.11 3060.43 M 4169.51 3059.75 L 4171.15 3059.75 L 4171.15 3059.47 L 4171.01 3059.2 L 4170.87 3059.06 L 4170.6 3058.93 L 4170.19 3058.93 L 4169.92 3059.06 L 4169.65 3059.34 L 4169.51 3059.75 L 4169.51 3060.02 L 4169.65 3060.43 L 4169.92 3060.7 L 4170.19 3060.84 L 4170.6 3060.84 L 4170.87 3060.7 L 4171.15 3060.43 M 4173.68 3057.97 L 4173.68 3060.84 M 4173.68 3059.34 L 4173.41 3059.06 L 4173.14 3058.93 L 4172.73 3058.93 L 4172.45 3059.06 L 4172.18 3059.34 L 4172.05 3059.75 L 4172.05 3060.02 L 4172.18 3060.43 L 4172.45 3060.7 L 4172.73 3060.84 L 4173.14 3060.84 L 4173.41 3060.7 L 4173.68 3060.43~~gge265~~0~",
    "LIB~4072~3146~package`LED_PIRANHA_5MM`~~~gge66797bcd97f4f6c2~1~06f33b9ec2f246a69e302748e8cc30e7~1464432538~0~#@$TEXT~N~4081~3123~0.6~0~~3~~4.5~LED_PIRANHA_5MM~M 4081 3118.46 L 4081 3122.75 M 4081 3122.75 L 4083.45 3122.75 M 4084.8 3118.46 L 4084.8 3122.75 M 4084.8 3118.46 L 4087.46 3118.46 M 4084.8 3120.5 L 4086.44 3120.5 M 4084.8 3122.75 L 4087.46 3122.75 M 4088.81 3118.46 L 4088.81 3122.75 M 4088.81 3118.46 L 4090.25 3118.46 L 4090.86 3118.66 L 4091.27 3119.07 L 4091.47 3119.48 L 4091.68 3120.1 L 4091.68 3121.12 L 4091.47 3121.73 L 4091.27 3122.14 L 4090.86 3122.55 L 4090.25 3122.75 L 4088.81 3122.75 M 4093.03 3124.19 L 4096.71 3124.19 M 4098.06 3118.46 L 4098.06 3122.75 M 4098.06 3118.46 L 4099.9 3118.46 L 4100.51 3118.66 L 4100.72 3118.87 L 4100.92 3119.28 L 4100.92 3119.89 L 4100.72 3120.3 L 4100.51 3120.5 L 4099.9 3120.71 L 4098.06 3120.71 M 4102.27 3118.46 L 4102.27 3122.75 M 4103.62 3118.46 L 4103.62 3122.75 M 4103.62 3118.46 L 4105.46 3118.46 L 4106.08 3118.66 L 4106.28 3118.87 L 4106.49 3119.28 L 4106.49 3119.69 L 4106.28 3120.1 L 4106.08 3120.3 L 4105.46 3120.5 L 4103.62 3120.5 M 4105.05 3120.5 L 4106.49 3122.75 M 4109.47 3118.46 L 4107.84 3122.75 M 4109.47 3118.46 L 4111.11 3122.75 M 4108.45 3121.32 L 4110.5 3121.32 M 4112.46 3118.46 L 4112.46 3122.75 M 4112.46 3118.46 L 4115.32 3122.75 M 4115.32 3118.46 L 4115.32 3122.75 M 4116.67 3118.46 L 4116.67 3122.75 M 4119.54 3118.46 L 4119.54 3122.75 M 4116.67 3120.5 L 4119.54 3120.5 M 4122.52 3118.46 L 4120.89 3122.75 M 4122.52 3118.46 L 4124.16 3122.75 M 4121.5 3121.32 L 4123.55 3121.32 M 4125.51 3124.19 L 4129.19 3124.19 M 4133 3118.46 L 4130.95 3118.46 L 4130.75 3120.3 L 4130.95 3120.1 L 4131.56 3119.89 L 4132.18 3119.89 L 4132.79 3120.1 L 4133.2 3120.5 L 4133.4 3121.12 L 4133.4 3121.53 L 4133.2 3122.14 L 4132.79 3122.55 L 4132.18 3122.75 L 4131.56 3122.75 L 4130.95 3122.55 L 4130.75 3122.35 L 4130.54 3121.94 M 4134.75 3118.46 L 4134.75 3122.75 M 4134.75 3118.46 L 4136.39 3122.75 M 4138.03 3118.46 L 4136.39 3122.75 M 4138.03 3118.46 L 4138.03 3122.75 M 4139.38 3118.46 L 4139.38 3122.75 M 4139.38 3118.46 L 4141.01 3122.75 M 4142.65 3118.46 L 4141.01 3122.75 M 4142.65 3118.46 L 4142.65 3122.75~none~gge3~~0~#@$TEXT~P~4070~3129~0.6~0~~3~~4.5~U3~M 4070 3124.46 L 4070 3127.53 L 4070.2 3128.14 L 4070.61 3128.55 L 4071.23 3128.75 L 4071.64 3128.75 L 4072.25 3128.55 L 4072.66 3128.14 L 4072.86 3127.53 L 4072.86 3124.46 M 4074.62 3124.46 L 4076.87 3124.46 L 4075.65 3126.1 L 4076.26 3126.1 L 4076.67 3126.3 L 4076.87 3126.5 L 4077.08 3127.12 L 4077.08 3127.53 L 4076.87 3128.14 L 4076.46 3128.55 L 4075.85 3128.75 L 4075.24 3128.75 L 4074.62 3128.55 L 4074.42 3128.35 L 4074.21 3127.94~~gge5~~0~#@$TRACK~1~3~~4057 3161 4086.5 3161 4086.5 3131.5 4060.9 3131.5 4057 3135.4 4057 3161~gge7~0#@$TEXT~L~4039.5~3137~0.6~0~0~3~~3~BLUE~M 4039.5 3133.97L4039.5 3136.84 M 4039.5 3133.97L4040.73 3133.97 L4041.14 3134.11 L4041.27 3134.25 L4041.41 3134.52 L4041.41 3134.79 L4041.27 3135.06 L4041.14 3135.2 L4040.73 3135.34 M 4039.5 3135.34L4040.73 3135.34 L4041.14 3135.47 L4041.27 3135.61 L4041.41 3135.88 L4041.41 3136.29 L4041.27 3136.56 L4041.14 3136.7 L4040.73 3136.84 L4039.5 3136.84 M 4042.31 3133.97L4042.31 3136.84 M 4042.31 3136.84L4043.95 3136.84 M 4044.85 3133.97L4044.85 3136.02 L4044.98 3136.43 L4045.25 3136.7 L4045.66 3136.84 L4045.94 3136.84 L4046.35 3136.7 L4046.62 3136.43 L4046.75 3136.02 L4046.75 3133.97 M 4047.65 3133.97L4047.65 3136.84 M 4047.65 3133.97L4049.43 3133.97 M 4047.65 3135.34L4048.75 3135.34 M 4047.65 3136.84L4049.43 3136.84 ~~gge8~~0~#@$TEXT~L~4088.5~3137.5~0.6~0~0~3~~3~GND~M 4090.55 3135.15 L 4090.41 3134.88 L 4090.14 3134.61 L 4089.86 3134.47 L 4089.32 3134.47 L 4089.05 3134.61 L 4088.77 3134.88 L 4088.64 3135.15 L 4088.5 3135.56 L 4088.5 3136.25 L 4088.64 3136.65 L 4088.77 3136.93 L 4089.05 3137.2 L 4089.32 3137.34 L 4089.86 3137.34 L 4090.14 3137.2 L 4090.41 3136.93 L 4090.55 3136.65 L 4090.55 3136.25 M 4089.86 3136.25 L 4090.55 3136.25 M 4091.45 3134.47 L 4091.45 3137.34 M 4091.45 3134.47 L 4093.35 3137.34 M 4093.35 3134.47 L 4093.35 3137.34 M 4094.25 3134.47 L 4094.25 3137.34 M 4094.25 3134.47 L 4095.21 3134.47 L 4095.62 3134.61 L 4095.89 3134.88 L 4096.03 3135.15 L 4096.16 3135.56 L 4096.16 3136.25 L 4096.03 3136.65 L 4095.89 3136.93 L 4095.62 3137.2 L 4095.21 3137.34 L 4094.25 3137.34~~gge10~~0~#@$TEXT~L~4091~3158~0.6~0~0~3~~3~RED~M 4091 3154.97 L 4091 3157.84 M 4091 3154.97 L 4092.23 3154.97 L 4092.64 3155.11 L 4092.77 3155.25 L 4092.91 3155.52 L 4092.91 3155.79 L 4092.77 3156.06 L 4092.64 3156.2 L 4092.23 3156.34 L 4091 3156.34 M 4091.95 3156.34 L 4092.91 3157.84 M 4093.81 3154.97 L 4093.81 3157.84 M 4093.81 3154.97 L 4095.58 3154.97 M 4093.81 3156.34 L 4094.9 3156.34 M 4093.81 3157.84 L 4095.58 3157.84 M 4096.48 3154.97 L 4096.48 3157.84 M 4096.48 3154.97 L 4097.44 3154.97 L 4097.85 3155.11 L 4098.12 3155.38 L 4098.25 3155.65 L 4098.39 3156.06 L 4098.39 3156.75 L 4098.25 3157.15 L 4098.12 3157.43 L 4097.85 3157.7 L 4097.44 3157.84 L 4096.48 3157.84~~gge12~~0~#@$TEXT~L~4037~3158~0.6~0~0~3~~3~GREEN~M 4039.05 3155.65L4038.91 3155.38 L4038.64 3155.11 L4038.36 3154.97 L4037.82 3154.97 L4037.55 3155.11 L4037.27 3155.38 L4037.14 3155.65 L4037 3156.06 L4037 3156.75 L4037.14 3157.15 L4037.27 3157.43 L4037.55 3157.7 L4037.82 3157.84 L4038.36 3157.84 L4038.64 3157.7 L4038.91 3157.43 L4039.05 3157.15 L4039.05 3156.75 M 4038.36 3156.75L4039.05 3156.75 M 4039.95 3154.97L4039.95 3157.84 M 4039.95 3154.97L4041.17 3154.97 L4041.58 3155.11 L4041.72 3155.25 L4041.85 3155.52 L4041.85 3155.79 L4041.72 3156.06 L4041.58 3156.2 L4041.17 3156.34 L4039.95 3156.34 M 4040.9 3156.34L4041.85 3157.84 M 4042.75 3154.97L4042.75 3157.84 M 4042.75 3154.97L4044.53 3154.97 M 4042.75 3156.34L4043.85 3156.34 M 4042.75 3157.84L4044.53 3157.84 M 4045.43 3154.97L4045.43 3157.84 M 4045.43 3154.97L4047.2 3154.97 M 4045.43 3156.34L4046.52 3156.34 M 4045.43 3157.84L4047.2 3157.84 M 4048.1 3154.97L4048.1 3157.84 M 4048.1 3154.97L4050.01 3157.84 M 4050.01 3154.97L4050.01 3157.84 ~~gge14~~0~#@$TEXT~L~4088.5~3146.5~0.6~0~0~3~~3~PIRANHA 5MM~M 4088.5 3143.47L4088.5 3146.34 M 4088.5 3143.47L4089.73 3143.47 L4090.14 3143.61 L4090.27 3143.75 L4090.41 3144.02 L4090.41 3144.43 L4090.27 3144.7 L4090.14 3144.84 L4089.73 3144.97 L4088.5 3144.97 M 4091.31 3143.47L4091.31 3146.34 M 4092.21 3143.47L4092.21 3146.34 M 4092.21 3143.47L4093.44 3143.47 L4093.85 3143.61 L4093.98 3143.75 L4094.12 3144.02 L4094.12 3144.29 L4093.98 3144.56 L4093.85 3144.7 L4093.44 3144.84 L4092.21 3144.84 M 4093.16 3144.84L4094.12 3146.34 M 4096.11 3143.47L4095.02 3146.34 M 4096.11 3143.47L4097.2 3146.34 M 4095.43 3145.38L4096.79 3145.38 M 4098.1 3143.47L4098.1 3146.34 M 4098.1 3143.47L4100.01 3146.34 M 4100.01 3143.47L4100.01 3146.34 M 4100.91 3143.47L4100.91 3146.34 M 4102.82 3143.47L4102.82 3146.34 M 4100.91 3144.84L4102.82 3144.84 M 4104.81 3143.47L4103.72 3146.34 M 4104.81 3143.47L4105.9 3146.34 M 4104.13 3145.38L4105.49 3145.38 M 4110.54 3143.47L4109.17 3143.47 L4109.04 3144.7 L4109.17 3144.56 L4109.58 3144.43 L4109.99 3144.43 L4110.4 3144.56 L4110.67 3144.84 L4110.81 3145.25 L4110.81 3145.52 L4110.67 3145.93 L4110.4 3146.2 L4109.99 3146.34 L4109.58 3146.34 L4109.17 3146.2 L4109.04 3146.06 L4108.9 3145.79 M 4111.71 3143.47L4111.71 3146.34 M 4111.71 3143.47L4112.8 3146.34 M 4113.89 3143.47L4112.8 3146.34 M 4113.89 3143.47L4113.89 3146.34 M 4114.79 3143.47L4114.79 3146.34 M 4114.79 3143.47L4115.88 3146.34 M 4116.97 3143.47L4115.88 3146.34 M 4116.97 3143.47L4116.97 3146.34 ~~gge16~~0~#@$PAD~ELLIPSE~4061.4~3156.6~5.12~5.12~11~U3_-~-~1.77~~0~gge18~0~~Y~0~0~0.4~4061.4,3156.6#@$PAD~ELLIPSE~4082.2~3156.6~5.12~5.12~11~U3_R~R~1.77~~0~gge23~0~~Y~0~0~0.4~4082.2,3156.6#@$PAD~ELLIPSE~4061.4~3135.9~5.12~5.12~11~U3_B~B~1.77~~0~gge28~0~~Y~0~0~0.4~4061.4,3135.9#@$PAD~ELLIPSE~4082.1~3135.9~5.12~5.12~11~U3_G~G~1.77~~0~gge33~0~~Y~0~0~0.4~4082.1,3135.9",
    "LIB~4156.34~3050~package`SCREW_TERMINAL_DG301-5.0-03P`~~~gge8748f4ffb30f98ff~1~17cd636697d0448fa3498db76c750e11~1549709941~0~#@$TEXT~N~4165.34~3029~0.6~0~~3~~4.5~DG301-5.0-3P~M 4165.34 3024.46 L 4165.34 3028.75 M 4165.34 3024.46 L 4166.77 3024.46 L 4167.39 3024.66 L 4167.79 3025.07 L 4168 3025.48 L 4168.2 3026.1 L 4168.2 3027.12 L 4168 3027.73 L 4167.79 3028.14 L 4167.39 3028.55 L 4166.77 3028.75 L 4165.34 3028.75 M 4172.62 3025.48 L 4172.42 3025.07 L 4172.01 3024.66 L 4171.6 3024.46 L 4170.78 3024.46 L 4170.37 3024.66 L 4169.96 3025.07 L 4169.76 3025.48 L 4169.55 3026.1 L 4169.55 3027.12 L 4169.76 3027.73 L 4169.96 3028.14 L 4170.37 3028.55 L 4170.78 3028.75 L 4171.6 3028.75 L 4172.01 3028.55 L 4172.42 3028.14 L 4172.62 3027.73 L 4172.62 3027.12 M 4171.6 3027.12 L 4172.62 3027.12 M 4174.38 3024.46 L 4176.63 3024.46 L 4175.4 3026.1 L 4176.02 3026.1 L 4176.43 3026.3 L 4176.63 3026.5 L 4176.84 3027.12 L 4176.84 3027.53 L 4176.63 3028.14 L 4176.22 3028.55 L 4175.61 3028.75 L 4174.99 3028.75 L 4174.38 3028.55 L 4174.18 3028.35 L 4173.97 3027.94 M 4179.41 3024.46 L 4178.8 3024.66 L 4178.39 3025.28 L 4178.19 3026.3 L 4178.19 3026.91 L 4178.39 3027.94 L 4178.8 3028.55 L 4179.41 3028.75 L 4179.82 3028.75 L 4180.44 3028.55 L 4180.84 3027.94 L 4181.05 3026.91 L 4181.05 3026.3 L 4180.84 3025.28 L 4180.44 3024.66 L 4179.82 3024.46 L 4179.41 3024.46 M 4182.4 3025.28 L 4182.81 3025.07 L 4183.42 3024.46 L 4183.42 3028.75 M 4184.77 3026.91 L 4188.45 3026.91 M 4192.26 3024.46 L 4190.21 3024.46 L 4190.01 3026.3 L 4190.21 3026.1 L 4190.83 3025.89 L 4191.44 3025.89 L 4192.05 3026.1 L 4192.46 3026.5 L 4192.67 3027.12 L 4192.67 3027.53 L 4192.46 3028.14 L 4192.05 3028.55 L 4191.44 3028.75 L 4190.83 3028.75 L 4190.21 3028.55 L 4190.01 3028.35 L 4189.8 3027.94 M 4194.22 3027.73 L 4194.02 3027.94 L 4194.22 3028.14 L 4194.43 3027.94 L 4194.22 3027.73 M 4197 3024.46 L 4196.39 3024.66 L 4195.98 3025.28 L 4195.78 3026.3 L 4195.78 3026.91 L 4195.98 3027.94 L 4196.39 3028.55 L 4197 3028.75 L 4197.41 3028.75 L 4198.03 3028.55 L 4198.44 3027.94 L 4198.64 3026.91 L 4198.64 3026.3 L 4198.44 3025.28 L 4198.03 3024.66 L 4197.41 3024.46 L 4197 3024.46 M 4199.99 3026.91 L 4203.67 3026.91 M 4205.43 3024.46 L 4207.68 3024.46 L 4206.45 3026.1 L 4207.07 3026.1 L 4207.48 3026.3 L 4207.68 3026.5 L 4207.89 3027.12 L 4207.89 3027.53 L 4207.68 3028.14 L 4207.27 3028.55 L 4206.66 3028.75 L 4206.04 3028.75 L 4205.43 3028.55 L 4205.23 3028.35 L 4205.02 3027.94 M 4209.24 3024.46 L 4209.24 3028.75 M 4209.24 3024.46 L 4211.08 3024.46 L 4211.69 3024.66 L 4211.89 3024.87 L 4212.1 3025.28 L 4212.1 3025.89 L 4211.89 3026.3 L 4211.69 3026.5 L 4211.08 3026.71 L 4209.24 3026.71~none~gge40~~0~#@$TEXT~P~4146.5~3033~0.6~0~~3~~4.5~FLOWMETER1~M 4146.5 3028.46 L 4146.5 3032.75 M 4146.5 3028.46 L 4149.16 3028.46 M 4146.5 3030.5 L 4148.14 3030.5 M 4150.51 3028.46 L 4150.51 3032.75 M 4150.51 3032.75 L 4152.96 3032.75 M 4155.54 3028.46 L 4155.13 3028.66 L 4154.72 3029.07 L 4154.52 3029.48 L 4154.31 3030.1 L 4154.31 3031.12 L 4154.52 3031.73 L 4154.72 3032.14 L 4155.13 3032.55 L 4155.54 3032.75 L 4156.36 3032.75 L 4156.77 3032.55 L 4157.18 3032.14 L 4157.38 3031.73 L 4157.59 3031.12 L 4157.59 3030.1 L 4157.38 3029.48 L 4157.18 3029.07 L 4156.77 3028.66 L 4156.36 3028.46 L 4155.54 3028.46 M 4158.94 3028.46 L 4159.96 3032.75 M 4160.98 3028.46 L 4159.96 3032.75 M 4160.98 3028.46 L 4162 3032.75 M 4163.03 3028.46 L 4162 3032.75 M 4164.38 3028.46 L 4164.38 3032.75 M 4164.38 3028.46 L 4166.01 3032.75 M 4167.65 3028.46 L 4166.01 3032.75 M 4167.65 3028.46 L 4167.65 3032.75 M 4169 3028.46 L 4169 3032.75 M 4169 3028.46 L 4171.66 3028.46 M 4169 3030.5 L 4170.64 3030.5 M 4169 3032.75 L 4171.66 3032.75 M 4174.44 3028.46 L 4174.44 3032.75 M 4173.01 3028.46 L 4175.87 3028.46 M 4177.22 3028.46 L 4177.22 3032.75 M 4177.22 3028.46 L 4179.88 3028.46 M 4177.22 3030.5 L 4178.86 3030.5 M 4177.22 3032.75 L 4179.88 3032.75 M 4181.23 3028.46 L 4181.23 3032.75 M 4181.23 3028.46 L 4183.07 3028.46 L 4183.69 3028.66 L 4183.89 3028.87 L 4184.1 3029.28 L 4184.1 3029.69 L 4183.89 3030.1 L 4183.69 3030.3 L 4183.07 3030.5 L 4181.23 3030.5 M 4182.66 3030.5 L 4184.1 3032.75 M 4185.45 3029.28 L 4185.85 3029.07 L 4186.47 3028.46 L 4186.47 3032.75~~gge42~~0~#@$TRACK~1~3~S$50~4136.655 3037.7953 4195.7101 3037.7953 4195.7101 3067.7165 4136.655 3067.7165 4136.655 3037.7953~gge44~0#@$PAD~ELLIPSE~4146.498~3050~7.874~7.874~11~FLOWMETER1_1~1~2.5591~~180~gge45~0~~Y~0~0~0.4~4146.498,3050#@$PAD~ELLIPSE~4166.183~3050~7.874~7.874~11~FLOWMETER1_2~2~2.5591~~180~gge50~0~~Y~0~0~0.4~4166.183,3050#@$PAD~ELLIPSE~4185.868~3050~7.874~7.874~11~FLOWMETER1_3~3~2.5591~~180~gge55~0~~Y~0~0~0.4~4185.868,3050",
    "LIB~4341~3123~package`ELECTRON`~~~gge124c013cfc851acc~1~e40dad9b16124dc98c84b55687e9f532~1503926462~0~#@$TEXT~N~4301~3035~0.6~0~~3~~4.5~Particle_Electron~M 4301 3030.46 L 4301 3034.75 M 4301 3030.46 L 4302.84 3030.46 L 4303.45 3030.66 L 4303.66 3030.87 L 4303.86 3031.28 L 4303.86 3031.89 L 4303.66 3032.3 L 4303.45 3032.5 L 4302.84 3032.71 L 4301 3032.71 M 4307.67 3031.89 L 4307.67 3034.75 M 4307.67 3032.5 L 4307.26 3032.1 L 4306.85 3031.89 L 4306.24 3031.89 L 4305.83 3032.1 L 4305.42 3032.5 L 4305.21 3033.12 L 4305.21 3033.53 L 4305.42 3034.14 L 4305.83 3034.55 L 4306.24 3034.75 L 4306.85 3034.75 L 4307.26 3034.55 L 4307.67 3034.14 M 4309.02 3031.89 L 4309.02 3034.75 M 4309.02 3033.12 L 4309.22 3032.5 L 4309.63 3032.1 L 4310.04 3031.89 L 4310.65 3031.89 M 4312.62 3030.46 L 4312.62 3033.94 L 4312.82 3034.55 L 4313.23 3034.75 L 4313.64 3034.75 M 4312 3031.89 L 4313.44 3031.89 M 4314.99 3030.46 L 4315.2 3030.66 L 4315.4 3030.46 L 4315.2 3030.25 L 4314.99 3030.46 M 4315.2 3031.89 L 4315.2 3034.75 M 4319.2 3032.5 L 4318.8 3032.1 L 4318.39 3031.89 L 4317.77 3031.89 L 4317.36 3032.1 L 4316.95 3032.5 L 4316.75 3033.12 L 4316.75 3033.53 L 4316.95 3034.14 L 4317.36 3034.55 L 4317.77 3034.75 L 4318.39 3034.75 L 4318.8 3034.55 L 4319.2 3034.14 M 4320.55 3030.46 L 4320.55 3034.75 M 4321.9 3033.12 L 4324.36 3033.12 L 4324.36 3032.71 L 4324.15 3032.3 L 4323.95 3032.1 L 4323.54 3031.89 L 4322.93 3031.89 L 4322.52 3032.1 L 4322.11 3032.5 L 4321.9 3033.12 L 4321.9 3033.53 L 4322.11 3034.14 L 4322.52 3034.55 L 4322.93 3034.75 L 4323.54 3034.75 L 4323.95 3034.55 L 4324.36 3034.14 M 4325.71 3036.19 L 4329.39 3036.19 M 4330.74 3030.46 L 4330.74 3034.75 M 4330.74 3030.46 L 4333.4 3030.46 M 4330.74 3032.5 L 4332.38 3032.5 M 4330.74 3034.75 L 4333.4 3034.75 M 4334.75 3030.46 L 4334.75 3034.75 M 4336.1 3033.12 L 4338.55 3033.12 L 4338.55 3032.71 L 4338.35 3032.3 L 4338.15 3032.1 L 4337.74 3031.89 L 4337.12 3031.89 L 4336.71 3032.1 L 4336.3 3032.5 L 4336.1 3033.12 L 4336.1 3033.53 L 4336.3 3034.14 L 4336.71 3034.55 L 4337.12 3034.75 L 4337.74 3034.75 L 4338.15 3034.55 L 4338.55 3034.14 M 4342.36 3032.5 L 4341.95 3032.1 L 4341.54 3031.89 L 4340.93 3031.89 L 4340.52 3032.1 L 4340.11 3032.5 L 4339.9 3033.12 L 4339.9 3033.53 L 4340.11 3034.14 L 4340.52 3034.55 L 4340.93 3034.75 L 4341.54 3034.75 L 4341.95 3034.55 L 4342.36 3034.14 M 4344.32 3030.46 L 4344.32 3033.94 L 4344.53 3034.55 L 4344.94 3034.75 L 4345.35 3034.75 M 4343.71 3031.89 L 4345.14 3031.89 M 4346.7 3031.89 L 4346.7 3034.75 M 4346.7 3033.12 L 4346.9 3032.5 L 4347.31 3032.1 L 4347.72 3031.89 L 4348.33 3031.89 M 4350.7 3031.89 L 4350.3 3032.1 L 4349.89 3032.5 L 4349.68 3033.12 L 4349.68 3033.53 L 4349.89 3034.14 L 4350.3 3034.55 L 4350.7 3034.75 L 4351.32 3034.75 L 4351.73 3034.55 L 4352.14 3034.14 L 4352.34 3033.53 L 4352.34 3033.12 L 4352.14 3032.5 L 4351.73 3032.1 L 4351.32 3031.89 L 4350.7 3031.89 M 4353.69 3031.89 L 4353.69 3034.75 M 4353.69 3032.71 L 4354.3 3032.1 L 4354.71 3031.89 L 4355.33 3031.89 L 4355.74 3032.1 L 4355.94 3032.71 L 4355.94 3034.75~none~gge62~~0~#@$TEXT~P~4301~3042~0.6~0~~3~~4.5~U6~M 4301 3037.46 L 4301 3040.53 L 4301.2 3041.14 L 4301.61 3041.55 L 4302.23 3041.75 L 4302.64 3041.75 L 4303.25 3041.55 L 4303.66 3041.14 L 4303.86 3040.53 L 4303.86 3037.46 M 4307.67 3038.07 L 4307.46 3037.66 L 4306.85 3037.46 L 4306.44 3037.46 L 4305.83 3037.66 L 4305.42 3038.28 L 4305.21 3039.3 L 4305.21 3040.32 L 4305.42 3041.14 L 4305.83 3041.55 L 4306.44 3041.75 L 4306.65 3041.75 L 4307.26 3041.55 L 4307.67 3041.14 L 4307.87 3040.53 L 4307.87 3040.32 L 4307.67 3039.71 L 4307.26 3039.3 L 4306.65 3039.1 L 4306.44 3039.1 L 4305.83 3039.3 L 4305.42 3039.71 L 4305.21 3040.32~~gge64~~0~#@$TRACK~1~3~~4261 3043 4341 3043~gge66~0#@$TRACK~1~3~~4341 3043 4341 3234~gge67~0#@$TRACK~1~3~~4261 3043 4261 3234~gge68~0#@$TRACK~1~3~~4266 3243 4336 3243~gge69~0#@$TRACK~1~3~~4266 3243 4261 3234~gge70~0#@$TRACK~1~3~~4336 3243 4341 3234~gge71~0#@$PAD~ELLIPSE~4266~3063~8~8~11~U6_1~1~1.8~~0~gge72~0~~Y~0~0~0.4~4266,3063#@$PAD~ELLIPSE~4266~3073~8~8~11~U6_2~2~1.8~~0~gge77~0~~Y~0~0~0.4~4266,3073#@$PAD~ELLIPSE~4266~3083~8~8~11~U6_3~3~1.8~~0~gge82~0~~Y~0~0~0.4~4266,3083#@$PAD~ELLIPSE~4266~3093~8~8~11~U6_4~4~1.8~~0~gge87~0~~Y~0~0~0.4~4266,3093#@$PAD~ELLIPSE~4266~3103~8~8~11~U6_5~5~1.8~~0~gge92~0~~Y~0~0~0.4~4266,3103#@$PAD~ELLIPSE~4266~3113~8~8~11~U6_6~6~1.8~~0~gge97~0~~Y~0~0~0.4~4266,3113#@$PAD~ELLIPSE~4266~3123~8~8~11~U6_7~7~1.8~~0~gge102~0~~Y~0~0~0.4~4266,3123#@$PAD~ELLIPSE~4266~3133~8~8~11~U6_8~8~1.8~~0~gge107~0~~Y~0~0~0.4~4266,3133#@$PAD~ELLIPSE~4266~3143~8~8~11~U6_9~9~1.8~~0~gge112~0~~Y~0~0~0.4~4266,3143#@$PAD~ELLIPSE~4266~3153~8~8~11~U6_10~10~1.8~~0~gge117~0~~Y~0~0~0.4~4266,3153#@$PAD~ELLIPSE~4266~3163~8~8~11~U6_11~11~1.8~~0~gge122~0~~Y~0~0~0.4~4266,3163#@$PAD~ELLIPSE~4266~3173~8~8~11~U6_12~12~1.8~~0~gge127~0~~Y~0~0~0.4~4266,3173#@$PAD~ELLIPSE~4266~3183~8~8~11~U6_13~13~1.8~~0~gge132~0~~Y~0~0~0.4~4266,3183#@$PAD~ELLIPSE~4266~3193~8~8~11~U6_14~14~1.8~~0~gge137~0~~Y~0~0~0.4~4266,3193#@$PAD~ELLIPSE~4266~3203~8~8~11~U6_15~15~1.8~~0~gge142~0~~Y~0~0~0.4~4266,3203#@$PAD~ELLIPSE~4266~3213~8~8~11~U6_16~16~1.8~~0~gge147~0~~Y~0~0~0.4~4266,3213#@$PAD~ELLIPSE~4266~3223~8~8~11~U6_17~17~1.8~~0~gge152~0~~Y~0~0~0.4~4266,3223#@$PAD~ELLIPSE~4266~3233~8~8~11~U6_18~18~1.8~~0~gge157~0~~Y~0~0~0.4~4266,3233#@$PAD~ELLIPSE~4336~3233~8~8~11~U6_19~19~1.8~~0~gge162~0~~Y~0~0~0.4~4336,3233#@$PAD~ELLIPSE~4336~3223~8~8~11~U6_20~20~1.8~~0~gge167~0~~Y~0~0~0.4~4336,3223#@$PAD~ELLIPSE~4336~3213~8~8~11~U6_21~21~1.8~~0~gge172~0~~Y~0~0~0.4~4336,3213#@$PAD~ELLIPSE~4336~3203~8~8~11~U6_22~22~1.8~~0~gge177~0~~Y~0~0~0.4~4336,3203#@$PAD~ELLIPSE~4336~3193~8~8~11~U6_23~23~1.8~~0~gge182~0~~Y~0~0~0.4~4336,3193#@$PAD~ELLIPSE~4336~3183~8~8~11~U6_24~24~1.8~~0~gge187~0~~Y~0~0~0.4~4336,3183#@$PAD~ELLIPSE~4336~3173~8~8~11~U6_25~25~1.8~~0~gge192~0~~Y~0~0~0.4~4336,3173#@$PAD~ELLIPSE~4336~3163~8~8~11~U6_26~26~1.8~~0~gge197~0~~Y~0~0~0.4~4336,3163#@$PAD~ELLIPSE~4336~3153~8~8~11~U6_27~27~1.8~~0~gge202~0~~Y~0~0~0.4~4336,3153#@$PAD~ELLIPSE~4336~3143~8~8~11~U6_28~28~1.8~~0~gge207~0~~Y~0~0~0.4~4336,3143#@$PAD~ELLIPSE~4336~3133~8~8~11~U6_29~29~1.8~~0~gge212~0~~Y~0~0~0.4~4336,3133#@$PAD~ELLIPSE~4336~3123~8~8~11~U6_30~30~1.8~~0~gge217~0~~Y~0~0~0.4~4336,3123#@$PAD~ELLIPSE~4336~3113~8~8~11~U6_31~31~1.8~~0~gge222~0~~Y~0~0~0.4~4336,3113#@$PAD~ELLIPSE~4336~3103~8~8~11~U6_32~32~1.8~~0~gge227~0~~Y~0~0~0.4~4336,3103#@$PAD~ELLIPSE~4336~3093~8~8~11~U6_33~33~1.8~~0~gge232~0~~Y~0~0~0.4~4336,3093#@$PAD~ELLIPSE~4336~3083~8~8~11~U6_34~34~1.8~~0~gge237~0~~Y~0~0~0.4~4336,3083#@$PAD~ELLIPSE~4336~3073~8~8~11~U6_35~35~1.8~~0~gge242~0~~Y~0~0~0.4~4336,3073#@$PAD~ELLIPSE~4336~3063~8~8~11~U6_36~36~1.8~~0~gge247~0~~Y~0~0~0.4~4336,3063"
  ],
  "layers": [
    "1~TopLayer~#FF0000~true~true~true~",
    "2~BottomLayer~#0000FF~true~false~true~",
    "3~TopSilkLayer~#FFCC00~true~false~true~",
    "4~BottomSilkLayer~#66CC33~true~false~true~",
    "5~TopPasteMaskLayer~#808080~true~false~true~",
    "6~BottomPasteMaskLayer~#800000~true~false~true~",
    "7~TopSolderMaskLayer~#800080~true~false~true~0.3",
    "8~BottomSolderMaskLayer~#AA00FF~true~false~true~0.3",
    "9~Ratlines~#6464FF~true~false~true~",
    "10~BoardOutLine~#FF00FF~true~false~true~",
    "11~Multi-Layer~#C0C0C0~true~false~true~",
    "12~Document~#FFFFFF~true~false~true~",
    "13~TopAssembly~#33CC99~false~false~false~",
    "14~BottomAssembly~#5555FF~false~false~false~",
    "15~Mechanical~#F022F0~false~false~false~",
    "19~3DModel~#66CCFF~false~false~false~",
    "21~Inner1~#999966~false~false~false~~",
    "22~Inner2~#008000~false~false~false~~",
    "23~Inner3~#00FF00~false~false~false~~",
    "24~Inner4~#BC8E00~false~false~false~~",
    "25~Inner5~#70DBFA~false~false~false~~",
    "26~Inner6~#00CC66~false~false~false~~",
    "27~Inner7~#9966FF~false~false~false~~",
    "28~Inner8~#800080~false~false~false~~",
    "29~Inner9~#008080~false~false~false~~",
    "30~Inner10~#15935F~false~false~false~~",
    "31~Inner11~#000080~false~false~false~~",
    "32~Inner12~#00B400~false~false~false~~",
    "33~Inner13~#2E4756~false~false~false~~",
    "34~Inner14~#99842F~false~false~false~~",
    "35~Inner15~#FFFFAA~false~false~false~~",
    "36~Inner16~#99842F~false~false~false~~",
    "37~Inner17~#2E4756~false~false~false~~",
    "38~Inner18~#3535FF~false~false~false~~",
    "39~Inner19~#8000BC~false~false~false~~",
    "40~Inner20~#43AE5F~false~false~false~~",
    "41~Inner21~#C3ECCE~false~false~false~~",
    "42~Inner22~#728978~false~false~false~~",
    "43~Inner23~#39503F~false~false~false~~",
    "44~Inner24~#0C715D~false~false~false~~",
    "45~Inner25~#5A8A80~false~false~false~~",
    "46~Inner26~#2B937E~false~false~false~~",
    "47~Inner27~#23999D~false~false~false~~",
    "48~Inner28~#45B4E3~false~false~false~~",
    "49~Inner29~#215DA1~false~false~false~~",
    "50~Inner30~#4564D7~false~false~false~~",
    "51~Inner31~#6969E9~false~false~false~~",
    "52~Inner32~#9069E9~false~false~false~~",
    "99~ComponentShapeLayer~#00CCCC~false~false~false~",
    "100~LeadShapeLayer~#CC9999~false~false~false~",
    "Hole~Hole~#222222~~false~true~",
    "DRCError~DRCError~#FAD609~~false~true~"
  ],
  "objects": [
    "All~true~false",
    "Component~true~true",
    "Prefix~true~true",
    "Name~true~false",
    "Track~true~true",
    "Pad~true~true",
    "Via~true~true",
    "Hole~true~true",
    "Copper_Area~true~true",
    "Circle~true~true",
    "Arc~true~true",
    "Solid_Region~true~true",
    "Text~true~true",
    "Image~true~true",
    "Rect~true~true",
    "Dimension~true~true",
    "Protractor~true~true"
  ],
  "BBox": {
    "x": 4037,
    "y": 3028.5,
    "width": 304,
    "height": 916.5
  },
  "preference": {
    "hideFootprints": "",
    "hideNets": ""
  },
  "DRCRULE": {
    "Default": {
      "trackWidth": 1,
      "clearance": 0.6,
      "viaHoleDiameter": 2.4,
      "viaHoleD": 1.2
    },
    "isRealtime": true,
    "isDrcOnRoutingOrPlaceVia": false,
    "checkObjectToCopperarea": true,
    "showDRCRangeLine": true
  },
  "netColors": {}
}