{
  "editorVersion": "6.4.0",
  "docType": "5",
  "title": "Interview",
  "description": "",
  "colors": {},
  "schematics": [
    {
      "docType": "1",
      "title": "Interview",
      "description": "",
      "dataStr": "{\"head\":{\"docType\":\"1\",\"editorVersion\":\"6.4.0\",\"c_para\":{\"Prefix Start\":\"1\"},\"c_spiceCmd\":\"null\",\"hasIdFlag\":true,\"uuid\":\"ab71e3b582bb44898eb7c6d01d5cd402\",\"x\":\"0\",\"y\":\"0\",\"importFlag\":0,\"transformList\":\"\",\"newgId\":true},\"canvas\":\"CA~1000~1000~#FFFFFF~yes~#CCCCCC~5~1000~1000~line~5~pixel~5~0~0\",\"shape\":[\"LIB~0~-806~package`NONE`BOM_Manufacturer Part`?`spicePre`.`~~0~frame_lib_1~~~0~~yes~yes#@$T~N~0~-799~0~#000080~Arial~~~~~comment~NO~0~start~gge77~0~#@$T~P~1149~-821.5~0~#000080~Arial~~~~~comment~NO~0~start~gge76~0~#@$PT~M 206 -796 L 206 -806 M 206 -10 L 206 0 M 402 -796 L 402 -806 M 402 -10 L 402 0 M 598 -796 L 598 -806 M 598 -10 L 598 0 M 794 -796 L 794 -806 M 794 -10 L 794 0 M 990 -796 L 990 -806 M 990 -10 L 990 0 M 10 -600 L 0 -600 M 1139 -600 L 1149 -600 M 10 -404 L 0 -404 M 1139 -404 L 1149 -404 M 10 -208 L 0 -208 M 1139 -208 L 1149 -208 M 10 -12 L 0 -12 M 1139 -12 L 1149 -12~#880000~1~0~none~gge6~0~frame_tick#@$T~L~1.5~-698~0~#880000~~~~~~comment~A~1~start~gge7~0~frame_tick#@$T~L~1140.5~-698~0~#880000~~~~~~comment~A~1~start~gge9~0~frame_tick#@$T~L~1.5~-502~0~#880000~~~~~~comment~B~1~start~gge11~0~frame_tick#@$T~L~1140.5~-502~0~#880000~~~~~~comment~B~1~start~gge13~0~frame_tick#@$T~L~1.5~-306~0~#880000~~~~~~comment~C~1~start~gge15~0~frame_tick#@$T~L~1140.5~-306~0~#880000~~~~~~comment~C~1~start~gge17~0~frame_tick#@$T~L~1.5~-110~0~#880000~~~~~~comment~D~1~start~gge19~0~frame_tick#@$T~L~1140.5~-110~0~#880000~~~~~~comment~D~1~start~gge21~0~frame_tick#@$T~L~108~-797.5~0~#880000~~~~~~comment~1~1~start~gge23~0~frame_tick#@$T~L~108~-1.5~0~#880000~~~~~~comment~1~1~start~gge25~0~frame_tick#@$T~L~304~-797.5~0~#880000~~~~~~comment~2~1~start~gge27~0~frame_tick#@$T~L~304~-1.5~0~#880000~~~~~~comment~2~1~start~gge29~0~frame_tick#@$T~L~500~-797.5~0~#880000~~~~~~comment~3~1~start~gge31~0~frame_tick#@$T~L~500~-1.5~0~#880000~~~~~~comment~3~1~start~gge33~0~frame_tick#@$T~L~696~-797.5~0~#880000~~~~~~comment~4~1~start~gge35~0~frame_tick#@$T~L~696~-1.5~0~#880000~~~~~~comment~4~1~start~gge37~0~frame_tick#@$T~L~892~-797.5~0~#880000~~~~~~comment~5~1~start~gge39~0~frame_tick#@$T~L~892~-1.5~0~#880000~~~~~~comment~5~1~start~gge?~0~frame_tick#@$R~10~-796~~~1129~786~#880000~1~0~none~gge42~0~frame_innerbox#@$R~0~-806~~~1149~806~#880000~1~0~none~gge43~0~frame_outbox#@$R~694.99995~-90~~~444~80~#880000~1~0~none~gge44~0~frame_hitarea#@$PL~695.1 -50.75 1138.63 -50.75~#880000~1~0~none~gge45~0#@$PL~799.63 -30.75 1138.63 -30.75~#880000~1~0~none~gge46~0#@$PL~1059.61 -89.93 1059.63 -50.75~#880000~1~0~none~gge47~0#@$PL~1059.63 -50.75 1059.63 -30.75~#880000~1~0~none~gge48~0#@$T~L~699.99995~-77~0~#880000~~8pt~~~~comment~TITLE:~1~start~gge49~0~pinpart#@$T~L~757.62495~-64.41~0~#0000FF~~10pt~~~~comment~Interview Question~1~start~gge51~0~frame_title#@$T~L~1064.62495~-63.75~0~#880000~~8pt~~~~comment~REV:~1~start~gge53~0~pinpart#@$T~L~1102.62495~-63.75~0~#0000FF~~9pt~~~~comment~1.0~1~start~gge55~0~frame_version#@$T~L~804.62495~-15~0~#880000~~8pt~~~~comment~Date:~1~start~gge57~0~pinpart#@$T~L~851.62495~-14.52~0~#0000FF~~9pt~~~~comment~2020-07-20~1~start~gge59~0~frame_date#@$T~L~1063.62495~-35~0~#880000~~8pt~~~~comment~Sheet:~1~start~gge61~0~pinpart#@$T~L~1108.62495~-34.52~0~#0000FF~~9pt~~~~comment~1/1~1~start~gge63~0~frame_sheet#@$T~L~943.62495~-14.75~0~#880000~~8pt~~~~comment~Drawn By:~1~start~gge65~0~pinpart#@$T~L~1008.63~-14.75~0~#0000FF~~9pt~~~~comment~JJ OBrien~1~start~gge67~0~frame_drawn#@$T~L~804.62495~-36.75~0~#880000~~8pt~~~~comment~Company:~1~start~gge69~0~pinpart#@$T~L~871.24995~-36.64~0~#0000FF~~9pt~~~~comment~Untapped Inc~1~start~gge71~0~frame_company#@$PL~799.63 -50.75 799.63 -10.75~#880000~1~0~none~gge73~0\",\"LIB~165~-135~package`LED_PIRANHA_5MM`description`High-brightness RGB through-hole LED, similar to that used in the Shiftbrite`timeStamp`1464432537`spicePre`U`spiceSymbolName`LED_PIRANHA_5MM`BOM_Manufacturer Part``~90~0~gge66797bcd97f4f6c2~06f33b9ec2f246a69e302748e8cc30e7~03565ca9362a4a44843ee0d75d35f3a3~0~~yes~yes#@$T~N~187~-127.63~0~#000080~Arial~~~~~comment~LED_PIRANHA_5MM~1~start~gge15048~0~#@$T~P~187~-136.85~0~#000080~Arial~~~~~comment~U3~1~start~gge15050~0~#@$PL~145 -175 185 -175~#8D2323~1~0~none~gge15052~0#@$PL~185 -175 185 -105~#8D2323~1~0~none~gge15053~0#@$PL~185 -105 145 -105~#8D2323~1~0~none~gge15054~0#@$PL~145 -105 145 -175~#8D2323~1~0~none~gge15055~0#@$PL~160 -140 165 -140~#8D2323~1~0~none~gge15056~0#@$PL~165 -140 170 -140~#8D2323~1~0~none~gge15057~0#@$PL~170 -140 165 -145~#8D2323~1~0~none~gge15058~0#@$PL~165 -145 160 -140~#8D2323~1~0~none~gge15059~0#@$PL~160 -145 165 -145~#8D2323~1~0~none~gge15060~0#@$PL~165 -145 170 -145~#8D2323~1~0~none~gge15061~0#@$PL~165 -145 165 -150~#8D2323~1~0~none~gge15062~0#@$PL~165 -140 165 -135~#8D2323~1~0~none~gge15063~0#@$P~show~0~G~175~-95~270~gge15064~0^^175~-95^^M 175 -95 v -10~#8D2323^^1~178~-108~270~GRN~start~~~#8D2323^^0~174~-99~270~G~end~~~#8D2323^^0~175~-102^^0~M 178 -105 L 175 -108 L 172 -105#@$P~show~0~B~165~-95~270~gge15071~0^^165~-95^^M 165 -95 v -10~#8D2323^^1~168~-108~270~BLU~start~~~#8D2323^^0~164~-99~270~B~end~~~#8D2323^^0~165~-102^^0~M 168 -105 L 165 -108 L 162 -105#@$P~show~0~-~165~-185~90~gge15078~0^^165~-185^^M 165 -185 v 10~#8D2323^^1~168~-172~270~C~end~~~#8D2323^^0~164~-181~270~-~start~~~#8D2323^^0~165~-178^^0~M 162 -175 L 165 -172 L 168 -175#@$P~show~0~R~155~-95~270~gge15085~0^^155~-95^^M 155 -95 v -10~#8D2323^^1~158~-108~270~RED~start~~~#8D2323^^0~154~-99~270~R~end~~~#8D2323^^0~155~-102^^0~M 158 -105 L 155 -108 L 152 -105\",\"LIB~65~-610~package`SCREW_TERMINAL_DG301-5.0-03P`BOM_Manufacturer`DEGSTON`BOM_Manufacturer Part`DG301-5.0-03P-12-00A(H)`BOM_Supplier Part`DG301-5.0-03P`BOM_Supplier``link`https://www.tme.eu/gr/details/dg301-5.0-3p12/rages-susfixis-tupomenon/degson-electronics/dg301-50-03p-12-00ah/`Contributor`jd-cromemco`spicePre`C`spiceSymbolName`DG301-5.0-3P`~180~0~gge8748f4ffb30f98ff~17cd636697d0448fa3498db76c750e11~52964ef6f1224e6abca085ebc5adf746~0~~yes~yes#@$T~N~38.86~-663~0~#000080~Arial~~~~~comment~DG301-5.0-3P~1~start~gge18526~0~#@$T~P~38.86~-672.14~0~#000080~Arial~~~~~comment~FLOWMETER1~1~start~gge18528~0~#@$PL~55 -600 75 -600~#8D2323~1~0~none~gge18530~0#@$PL~75 -600 75 -660~#8D2323~1~0~none~gge18531~0#@$PL~75 -660 55 -660~#8D2323~1~0~none~gge18532~0#@$PL~55 -660 55 -600~#8D2323~1~0~none~gge18533~0#@$P~show~0~3~85~-610~0~gge18534~0^^85~-610^^M 85 -610 h -10~#8D2323^^0~72~-607~0~3~end~~~#8D2323^^1~81~-611~0~3~start~~~#8D2323^^0~78~-610^^0~M 75 -613 L 72 -610 L 75 -607#@$P~show~0~2~85~-630~0~gge18541~0^^85~-630^^M 85 -630 h -10~#8D2323^^0~72~-627~0~2~end~~~#8D2323^^1~81~-631~0~2~start~~~#8D2323^^0~78~-630^^0~M 75 -633 L 72 -630 L 75 -627#@$P~show~0~1~85~-650~0~gge18548~0^^85~-650^^M 85 -650 h -10~#8D2323^^0~72~-647~0~1~end~~~#8D2323^^1~81~-651~0~1~start~~~#8D2323^^0~78~-650^^0~M 75 -653 L 72 -650 L 75 -647\",\"LIB~525~-590~package`ELECTRON`spicePre`X`Contributor`Alexander Kocian`BOM_Supplier Part``BOM_Supplier`AVIA Semiconductor`spiceSymbolName`Particle_Electron`BOM_Manufacturer Part``~~0~gge124c013cfc851acc~e40dad9b16124dc98c84b55687e9f532~ceaccb414c274fe2a315fe21ec8b4ccc~0~~yes~yes#@$T~N~519~-613~0~#000080~Arial~~~~~comment~Particle_Electron~1~start~gge20556~0~#@$T~P~519~-622~0~#000080~Arial~~~~~comment~U6~1~start~gge20558~0~#@$P~show~0~1~475~-580~180~gge20560~0^^475~-580^^M 475 -580 h 10~#880000^^1~488.7~-576~0~VIN~start~~~#0000FF^^0~484.5~-581~0~1~end~~~#0000FF^^0~482~-580^^0~M 485 -577 L 488 -580 L 485 -583#@$P~show~0~2~475~-570~180~gge20567~0^^475~-570^^M 475 -570 h 10~#000000^^1~488.7~-566~0~GND~start~~~#000000^^0~484.5~-571~0~2~end~~~#000000^^0~482~-570^^0~M 485 -567 L 488 -570 L 485 -573#@$P~show~0~3~475~-560~180~gge20574~0^^475~-560^^M 475 -560 h 10~#880000^^1~488.7~-556~0~TX~start~~~#0000FF^^0~484.5~-561~0~3~end~~~#0000FF^^0~482~-560^^0~M 485 -557 L 488 -560 L 485 -563#@$P~show~0~4~475~-550~180~gge20581~0^^475~-550^^M 475 -550 h 10~#880000^^1~488.7~-546~0~RX~start~~~#0000FF^^0~484.5~-551~0~4~end~~~#0000FF^^0~482~-550^^0~M 485 -547 L 488 -550 L 485 -553#@$P~show~0~5~475~-540~180~gge20588~0^^475~-540^^M 475 -540 h 10~#880000^^1~488.7~-536~0~WKP~start~~~#0000FF^^0~484.5~-541~0~5~end~~~#0000FF^^0~482~-540^^0~M 485 -537 L 488 -540 L 485 -543#@$P~show~0~6~475~-530~180~gge20595~0^^475~-530^^M 475 -530 h 10~#880000^^1~488.7~-526~0~DAC~start~~~#0000FF^^0~484.5~-531~0~6~end~~~#0000FF^^0~482~-530^^0~M 485 -527 L 488 -530 L 485 -533#@$P~show~0~7~475~-520~180~gge20602~0^^475~-520^^M 475 -520 h 10~#880000^^1~488.7~-516~0~A5~start~~~#0000FF^^0~484.5~-521~0~7~end~~~#0000FF^^0~482~-520^^0~M 485 -517 L 488 -520 L 485 -523#@$P~show~0~8~475~-510~180~gge20609~0^^475~-510^^M 475 -510 h 10~#880000^^1~488.7~-506~0~A4~start~~~#0000FF^^0~484.5~-511~0~8~end~~~#0000FF^^0~482~-510^^0~M 485 -507 L 488 -510 L 485 -513#@$P~show~0~9~475~-500~180~gge20616~0^^475~-500^^M 475 -500 h 10~#880000^^1~488.7~-496~0~A3~start~~~#0000FF^^0~484.5~-501~0~9~end~~~#0000FF^^0~482~-500^^0~M 485 -497 L 488 -500 L 485 -503#@$P~show~0~10~475~-490~180~gge20623~0^^475~-490^^M 475 -490 h 10~#880000^^1~488.7~-486~0~A2~start~~~#0000FF^^0~484.5~-491~0~10~end~~~#0000FF^^0~482~-490^^0~M 485 -487 L 488 -490 L 485 -493#@$P~show~0~11~475~-480~180~gge20630~0^^475~-480^^M 475 -480 h 10~#880000^^1~488.7~-476~0~A1~start~~~#0000FF^^0~484.5~-481~0~11~end~~~#0000FF^^0~482~-480^^0~M 485 -477 L 488 -480 L 485 -483#@$P~show~0~12~475~-470~180~gge20637~0^^475~-470^^M 475 -470 h 10~#880000^^1~488.7~-466~0~A0~start~~~#0000FF^^0~484.5~-471~0~12~end~~~#0000FF^^0~482~-470^^0~M 485 -467 L 488 -470 L 485 -473#@$P~show~0~13~475~-460~180~gge20644~0^^475~-460^^M 475 -460 h 10~#880000^^1~488.7~-456~0~B5~start~~~#0000FF^^0~484.5~-461~0~13~end~~~#0000FF^^0~482~-460^^0~M 485 -457 L 488 -460 L 485 -463#@$P~show~0~14~475~-450~180~gge20651~0^^475~-450^^M 475 -450 h 10~#880000^^1~488.7~-446~0~B4~start~~~#0000FF^^0~484.5~-451~0~14~end~~~#0000FF^^0~482~-450^^0~M 485 -447 L 488 -450 L 485 -453#@$P~show~0~15~475~-440~180~gge20658~0^^475~-440^^M 475 -440 h 10~#880000^^1~488.7~-436~0~B3~start~~~#0000FF^^0~484.5~-441~0~15~end~~~#0000FF^^0~482~-440^^0~M 485 -437 L 488 -440 L 485 -443#@$P~show~0~16~475~-430~180~gge20665~0^^475~-430^^M 475 -430 h 10~#880000^^1~488.7~-426~0~B2~start~~~#0000FF^^0~484.5~-431~0~16~end~~~#0000FF^^0~482~-430^^0~M 485 -427 L 488 -430 L 485 -433#@$P~show~0~17~475~-420~180~gge20672~0^^475~-420^^M 475 -420 h 10~#880000^^1~488.7~-416~0~B1~start~~~#0000FF^^0~484.5~-421~0~17~end~~~#0000FF^^0~482~-420^^0~M 485 -417 L 488 -420 L 485 -423#@$P~show~0~18~475~-410~180~gge20679~0^^475~-410^^M 475 -410 h 10~#880000^^1~488.7~-406~0~B0~start~~~#0000FF^^0~484.5~-411~0~18~end~~~#0000FF^^0~482~-410^^0~M 485 -407 L 488 -410 L 485 -413#@$P~show~0~19~575~-410~0~gge20686~0^^575~-410^^M 575 -410 h -10~#880000^^1~561.3~-406~0~C0~end~~~#0000FF^^0~565.5~-411~0~19~start~~~#0000FF^^0~568~-410^^0~M 565 -413 L 562 -410 L 565 -407#@$P~show~0~20~575~-420~0~gge20693~0^^575~-420^^M 575 -420 h -10~#880000^^1~561.3~-416~0~C1~end~~~#0000FF^^0~565.5~-421~0~20~start~~~#0000FF^^0~568~-420^^0~M 565 -423 L 562 -420 L 565 -417#@$P~show~0~21~575~-430~0~gge20700~0^^575~-430^^M 575 -430 h -10~#880000^^1~561.3~-426~0~C2~end~~~#0000FF^^0~565.5~-431~0~21~start~~~#0000FF^^0~568~-430^^0~M 565 -433 L 562 -430 L 565 -427#@$P~show~0~22~575~-440~0~gge20707~0^^575~-440^^M 575 -440 h -10~#880000^^1~561.3~-436~0~C3~end~~~#0000FF^^0~565.5~-441~0~22~start~~~#0000FF^^0~568~-440^^0~M 565 -443 L 562 -440 L 565 -437#@$P~show~0~23~575~-450~0~gge20714~0^^575~-450^^M 575 -450 h -10~#880000^^1~561.3~-446~0~C4~end~~~#0000FF^^0~565.5~-451~0~23~start~~~#0000FF^^0~568~-450^^0~M 565 -453 L 562 -450 L 565 -447#@$P~show~0~24~575~-460~0~gge20721~0^^575~-460^^M 575 -460 h -10~#880000^^1~561.3~-456~0~C5~end~~~#0000FF^^0~565.5~-461~0~24~start~~~#0000FF^^0~568~-460^^0~M 565 -463 L 562 -460 L 565 -457#@$P~show~0~25~575~-470~0~gge20728~0^^575~-470^^M 575 -470 h -10~#880000^^1~561.3~-466~0~D0~end~~~#0000FF^^0~565.5~-471~0~25~start~~~#0000FF^^0~568~-470^^0~M 565 -473 L 562 -470 L 565 -467#@$P~show~0~26~575~-480~0~gge20735~0^^575~-480^^M 575 -480 h -10~#880000^^1~561.3~-476~0~D1~end~~~#0000FF^^0~565.5~-481~0~26~start~~~#0000FF^^0~568~-480^^0~M 565 -483 L 562 -480 L 565 -477#@$P~show~0~27~575~-490~0~gge20742~0^^575~-490^^M 575 -490 h -10~#880000^^1~561.3~-486~0~D2~end~~~#0000FF^^0~565.5~-491~0~27~start~~~#0000FF^^0~568~-490^^0~M 565 -493 L 562 -490 L 565 -487#@$P~show~0~28~575~-500~0~gge20749~0^^575~-500^^M 575 -500 h -10~#880000^^1~561.3~-496~0~D3~end~~~#0000FF^^0~565.5~-501~0~28~start~~~#0000FF^^0~568~-500^^0~M 565 -503 L 562 -500 L 565 -497#@$P~show~0~29~575~-510~0~gge20756~0^^575~-510^^M 575 -510 h -10~#880000^^1~561.3~-506~0~D4~end~~~#0000FF^^0~565.5~-511~0~29~start~~~#0000FF^^0~568~-510^^0~M 565 -513 L 562 -510 L 565 -507#@$P~show~0~30~575~-520~0~gge20763~0^^575~-520^^M 575 -520 h -10~#880000^^1~561.3~-516~0~D5~end~~~#0000FF^^0~565.5~-521~0~30~start~~~#0000FF^^0~568~-520^^0~M 565 -523 L 562 -520 L 565 -517#@$P~show~0~31~575~-530~0~gge20770~0^^575~-530^^M 575 -530 h -10~#880000^^1~561.3~-526~0~D6~end~~~#0000FF^^0~565.5~-531~0~31~start~~~#0000FF^^0~568~-530^^0~M 565 -533 L 562 -530 L 565 -527#@$P~show~0~32~575~-540~0~gge20777~0^^575~-540^^M 575 -540 h -10~#880000^^1~561.3~-536~0~D7~end~~~#0000FF^^0~565.5~-541~0~32~start~~~#0000FF^^0~568~-540^^0~M 565 -543 L 562 -540 L 565 -537#@$P~show~0~33~575~-550~0~gge20784~0^^575~-550^^M 575 -550 h -10~#000000^^1~561.3~-546~0~GND~end~~~#000000^^0~565.5~-551~0~33~start~~~#000000^^0~568~-550^^0~M 565 -553 L 562 -550 L 565 -547#@$P~show~0~34~575~-560~0~gge20791~0^^575~-560^^M 575 -560 h -10~#880000^^1~561.3~-556~0~VBAT~end~~~#0000FF^^0~565.5~-561~0~34~start~~~#0000FF^^0~568~-560^^0~M 565 -563 L 562 -560 L 565 -557#@$P~show~0~35~575~-570~0~gge20798~0^^575~-570^^M 575 -570 h -10~#880000^^1~561.3~-566~0~#RST~end~~~#0000FF^^0~565.5~-571~0~35~start~~~#0000FF^^0~568~-570^^0~M 565 -573 L 562 -570 L 565 -567#@$P~show~0~36~575~-580~0~gge20805~0^^575~-580^^M 575 -580 h -10~#880000^^1~561.3~-576~0~3V3~end~~~#0000FF^^0~565.5~-581~0~36~start~~~#0000FF^^0~568~-580^^0~M 565 -583 L 562 -580 L 565 -577#@$PL~485 -580 485 -600 525 -600 525 -610 545 -610 545 -600 565 -600 565 -400 555 -390 495 -390 485 -400 485 -580~#000000~1~0~none~gge20812~0\"],\"BBox\":{\"x\":0,\"y\":-806.8,\"width\":1149,\"height\":807.7},\"colors\":{}}"
    }
  ]
}